06_event_study
…
Новостей после агрегации: 2096 

cat("Потеряно при агрегации (стали 0):", nrow(news_shifted) - nrow(news_aggregated), "\n")

Потеряно при агрегации (стали 0): 28 

Пример данных

es_data |>
  filter(!is.na(es_data$ret) & !is.na(es_data$market_return) &
           !is.na(es_data$sentiment_index) & es_data$sentiment_index != 0) |>
  head(100)

# A tibble: 100 × 8
   ticker date            ret volume_abs volume_rel spread market_return
   <chr>  <date>        <dbl>      <dbl>      <dbl>  <dbl>         <dbl>
 1 ABIO   2022-11-01  0.0471   57891598.       3.65  NA         0.00357 
 2 ABIO   2023-08-02  0.00246 227018872.      14.3   NA         0.00588 
 3 ABIO   2023-08-21  0.0246   90348800        5.70  16.2       0.00972 
 4 ABIO   2023-12-29  0        21015556.       1.33  13.2      -0.00100 
 5 ABIO   2024-01-17  0.0225   81038189        5.12   9.2       0.00266 
 6 ABIO   2024-01-18  0.0289  326996696       20.6    9.75     -0.00152 
 7 ABIO   2024-01-23 -0.0135  302526130.      19.1    8.95      0.000945
 8 ABIO   2024-02-12  0.0171   84740826.       5.35   8         0.00209 
 9 ABIO   2024-03-20  0.0721  872099432       55.0   10.3       0.000521
10 ABIO   2024-03-27  0.0360  104784936.       6.61   9.4       0.00536 
# ℹ 90 more rows
# ℹ 1 more variable: sentiment_index <dbl>
…
