06_event_study
…
Новостей после агрегации: 3146 

cat("Потеряно при агрегации (стали 0):", nrow(news_shifted) - nrow(news_aggregated), "\n")

Потеряно при агрегации (стали 0): 68 

Пример данных

es_data |>
  filter(!is.na(es_data$ret) & !is.na(es_data$market_return) &
           !is.na(es_data$sentiment_index) & es_data$sentiment_index != 0) |>
  head(100)

# A tibble: 100 × 8
   ticker date            ret volume_abs volume_rel spread market_return
   <chr>  <date>        <dbl>      <dbl>      <dbl>  <dbl>         <dbl>
 1 ABIO   2022-11-01  0.0471   57891598.       3.65  NA          0.00357
 2 ABIO   2023-07-03  0.0103   82703443.       5.22  NA         -0.00177
 3 ABIO   2023-07-12  0.0262  398259722.      25.1   NA          0.0120 
 4 ABIO   2023-07-19 -0.00863 111296206.       7.03  NA         -0.00298
 5 ABIO   2023-08-02  0.00246 227018872.      14.3   NA          0.00588
 6 ABIO   2023-08-21  0.0246   90348800        5.70  16.2        0.00972
 7 ABIO   2023-12-20  0.0240   47011229.       2.97  12.2        0.00703
 8 ABIO   2023-12-29  0        21015556.       1.33  13.2       -0.00100
 9 ABIO   2024-01-17  0.0225   81038189        5.12   9.2        0.00266
10 ABIO   2024-01-18  0.0289  326996696       20.6    9.75      -0.00152
# ℹ 90 more rows
# ℹ 1 more variable: sentiment_index <dbl>
…
